{
  "parentNode": {
    "uuid": "0de0c371d461b5477fa975c061270aaf"
  },
  "schema": {
    "name": "sub_category"
  },
  "language": "en",
  "fields": {
    "name": "Purification",
    "slug": "purification"
  }
}